A(0,0) = -((1 - eta)*(1 - zeta))/8.
A(0,1) = ((1 - eta)*(1 - zeta))/8.
A(0,2) = ((1 + eta)*(1 - zeta))/8.
A(0,3) = -((1 + eta)*(1 - zeta))/8.
A(0,4) = -((1 - eta)*(1 + zeta))/8.
A(0,5) = ((1 - eta)*(1 + zeta))/8.
A(0,6) = ((1 + eta)*(1 + zeta))/8.
A(0,7) = -((1 + eta)*(1 + zeta))/8.
A(1,0) = -((1 - xi)*(1 - zeta))/8.
A(1,1) = -((1 + xi)*(1 - zeta))/8.
A(1,2) = ((1 + xi)*(1 - zeta))/8.
A(1,3) = ((1 - xi)*(1 - zeta))/8.
A(1,4) = -((1 - xi)*(1 + zeta))/8.
A(1,5) = -((1 + xi)*(1 + zeta))/8.
A(1,6) = ((1 + xi)*(1 + zeta))/8.
A(1,7) = ((1 - xi)*(1 + zeta))/8.
A(2,0) = -((1 - eta)*(1 - xi))/8.
A(2,1) = -((1 - eta)*(1 + xi))/8.
A(2,2) = -((1 + eta)*(1 + xi))/8.
A(2,3) = -((1 + eta)*(1 - xi))/8.
A(2,4) = ((1 - eta)*(1 - xi))/8.
A(2,5) = ((1 - eta)*(1 + xi))/8.
A(2,6) = ((1 + eta)*(1 + xi))/8.
A(2,7) = ((1 + eta)*(1 - xi))/8.
