\relax 
\providecommand\hyper@newdestlabel[2]{}
\providecommand\HyperFirstAtBeginDocument{\AtBeginDocument}
\HyperFirstAtBeginDocument{\ifx\hyper@anchor\@undefined
\global\let\oldcontentsline\contentsline
\gdef\contentsline#1#2#3#4{\oldcontentsline{#1}{#2}{#3}}
\global\let\oldnewlabel\newlabel
\gdef\newlabel#1#2{\newlabelxx{#1}#2}
\gdef\newlabelxx#1#2#3#4#5#6{\oldnewlabel{#1}{{#2}{#3}}}
\AtEndDocument{\ifx\hyper@anchor\@undefined
\let\contentsline\oldcontentsline
\let\newlabel\oldnewlabel
\fi}
\fi}
\global\let\hyper@last\relax 
\gdef\HyperFirstAtBeginDocument#1{#1}
\providecommand\HyField@AuxAddToFields[1]{}
\providecommand\HyField@AuxAddToCoFields[2]{}
\@writefile{toc}{\contentsline {chapter}{\numberline {1}Main Page}{1}{chapter.1}}
\@writefile{lof}{\addvspace {10\p@ }}
\@writefile{lot}{\addvspace {10\p@ }}
\newlabel{index}{{1}{1}{Main Page}{chapter.1}{}}
\@writefile{toc}{\contentsline {chapter}{\numberline {2}Namespace Index}{3}{chapter.2}}
\@writefile{lof}{\addvspace {10\p@ }}
\@writefile{lot}{\addvspace {10\p@ }}
\@writefile{toc}{\contentsline {section}{\numberline {2.1}Namespace List}{3}{section.2.1}}
\@writefile{toc}{\contentsline {chapter}{\numberline {3}Class Index}{5}{chapter.3}}
\@writefile{lof}{\addvspace {10\p@ }}
\@writefile{lot}{\addvspace {10\p@ }}
\@writefile{toc}{\contentsline {section}{\numberline {3.1}Class List}{5}{section.3.1}}
\@writefile{toc}{\contentsline {chapter}{\numberline {4}File Index}{7}{chapter.4}}
\@writefile{lof}{\addvspace {10\p@ }}
\@writefile{lot}{\addvspace {10\p@ }}
\@writefile{toc}{\contentsline {section}{\numberline {4.1}File List}{7}{section.4.1}}
\@writefile{toc}{\contentsline {chapter}{\numberline {5}Namespace Documentation}{9}{chapter.5}}
\@writefile{lof}{\addvspace {10\p@ }}
\@writefile{lot}{\addvspace {10\p@ }}
\@writefile{toc}{\contentsline {section}{\numberline {5.1}mapping Namespace Reference}{9}{section.5.1}}
\newlabel{namespacemapping}{{5.1}{9}{mapping Namespace Reference}{section.5.1}{}}
\@writefile{toc}{\contentsline {subsection}{\numberline {5.1.1}Function Documentation}{9}{subsection.5.1.1}}
\@writefile{toc}{\contentsline {subsubsection}{\numberline {5.1.1.1}i\discretionary {-}{}{}\_\discretionary {-}{}{}ord}{9}{subsubsection.5.1.1.1}}
\newlabel{namespacemapping_afab9e567126d6c2cc9ef2aaef7914ab3}{{5.1.1.1}{9}{i\-\_\-ord}{subsubsection.5.1.1.1}{}}
\@writefile{toc}{\contentsline {subsubsection}{\numberline {5.1.1.2}j\discretionary {-}{}{}\_\discretionary {-}{}{}ord}{9}{subsubsection.5.1.1.2}}
\newlabel{namespacemapping_a5ef4645845b66f12954a02506a94102c}{{5.1.1.2}{9}{j\-\_\-ord}{subsubsection.5.1.1.2}{}}
\@writefile{toc}{\contentsline {subsubsection}{\numberline {5.1.1.3}k\discretionary {-}{}{}\_\discretionary {-}{}{}ord}{9}{subsubsection.5.1.1.3}}
\newlabel{namespacemapping_a29761a8e6e7e76dacbff82b9c67f33b0}{{5.1.1.3}{9}{k\-\_\-ord}{subsubsection.5.1.1.3}{}}
\@writefile{toc}{\contentsline {chapter}{\numberline {6}Class Documentation}{11}{chapter.6}}
\@writefile{lof}{\addvspace {10\p@ }}
\@writefile{lot}{\addvspace {10\p@ }}
\@writefile{toc}{\contentsline {section}{\numberline {6.1}boundary$<$ T $>$ Class Template Reference}{11}{section.6.1}}
\newlabel{classboundary}{{6.1}{11}{boundary$<$ T $>$ Class Template Reference}{section.6.1}{}}
\@writefile{toc}{\contentsline {subsection}{\numberline {6.1.1}Detailed Description}{11}{subsection.6.1.1}}
\@writefile{toc}{\contentsline {subsection}{\numberline {6.1.2}Constructor \& Destructor Documentation}{12}{subsection.6.1.2}}
\@writefile{toc}{\contentsline {subsubsection}{\numberline {6.1.2.1}boundary}{12}{subsubsection.6.1.2.1}}
\newlabel{classboundary_a8f9fd4620c23cc2cde702a2e8b4b0ebe}{{6.1.2.1}{12}{boundary}{subsubsection.6.1.2.1}{}}
\@writefile{toc}{\contentsline {subsection}{\numberline {6.1.3}Member Function Documentation}{12}{subsection.6.1.3}}
\@writefile{toc}{\contentsline {subsubsection}{\numberline {6.1.3.1}get\discretionary {-}{}{}\_\discretionary {-}{}{}boundary\discretionary {-}{}{}\_\discretionary {-}{}{}connectivity}{12}{subsubsection.6.1.3.1}}
\newlabel{classboundary_a8916dda79cd15a0a1cb9be6595b421fb}{{6.1.3.1}{12}{get\-\_\-boundary\-\_\-connectivity}{subsubsection.6.1.3.1}{}}
\@writefile{toc}{\contentsline {subsubsection}{\numberline {6.1.3.2}get\discretionary {-}{}{}\_\discretionary {-}{}{}boundary\discretionary {-}{}{}\_\discretionary {-}{}{}marker}{12}{subsubsection.6.1.3.2}}
\newlabel{classboundary_a9e3b8ebc30c084754a1ca2ba956d3f65}{{6.1.3.2}{12}{get\-\_\-boundary\-\_\-marker}{subsubsection.6.1.3.2}{}}
\@writefile{toc}{\contentsline {subsection}{\numberline {6.1.4}Friends And Related Function Documentation}{12}{subsection.6.1.4}}
\@writefile{toc}{\contentsline {subsubsection}{\numberline {6.1.4.1}solver}{12}{subsubsection.6.1.4.1}}
\newlabel{classboundary_ab259ad7748d8a9beff960d5f3eead3d2}{{6.1.4.1}{12}{solver}{subsubsection.6.1.4.1}{}}
\@writefile{toc}{\contentsline {section}{\numberline {6.2}material$<$ T $>$ Class Template Reference}{12}{section.6.2}}
\newlabel{classmaterial}{{6.2}{12}{material$<$ T $>$ Class Template Reference}{section.6.2}{}}
\@writefile{toc}{\contentsline {subsection}{\numberline {6.2.1}Detailed Description}{13}{subsection.6.2.1}}
\@writefile{toc}{\contentsline {subsection}{\numberline {6.2.2}Constructor \& Destructor Documentation}{14}{subsection.6.2.2}}
\@writefile{toc}{\contentsline {subsubsection}{\numberline {6.2.2.1}material}{14}{subsubsection.6.2.2.1}}
\newlabel{classmaterial_a6e73b3661acaca6e93e966e05428b601}{{6.2.2.1}{14}{material}{subsubsection.6.2.2.1}{}}
\@writefile{toc}{\contentsline {subsubsection}{\numberline {6.2.2.2}material}{14}{subsubsection.6.2.2.2}}
\newlabel{classmaterial_a06e3462c2b4cedf48b1a24cc3bfde179}{{6.2.2.2}{14}{material}{subsubsection.6.2.2.2}{}}
\@writefile{toc}{\contentsline {subsection}{\numberline {6.2.3}Member Function Documentation}{14}{subsection.6.2.3}}
\@writefile{toc}{\contentsline {subsubsection}{\numberline {6.2.3.1}get\discretionary {-}{}{}\_\discretionary {-}{}{}\discretionary {-}{}{}Cp}{14}{subsubsection.6.2.3.1}}
\newlabel{classmaterial_abd94639be199b09125fd4727153b76ec}{{6.2.3.1}{14}{get\-\_\-\-Cp}{subsubsection.6.2.3.1}{}}
\@writefile{toc}{\contentsline {subsubsection}{\numberline {6.2.3.2}get\discretionary {-}{}{}\_\discretionary {-}{}{}k}{14}{subsubsection.6.2.3.2}}
\newlabel{classmaterial_a4915d56396bc94aaf8740efc0d01a05e}{{6.2.3.2}{14}{get\-\_\-k}{subsubsection.6.2.3.2}{}}
\@writefile{toc}{\contentsline {subsubsection}{\numberline {6.2.3.3}get\discretionary {-}{}{}\_\discretionary {-}{}{}marker}{14}{subsubsection.6.2.3.3}}
\newlabel{classmaterial_a4b0b2d0c4078a1b40e904240910ffff9}{{6.2.3.3}{14}{get\-\_\-marker}{subsubsection.6.2.3.3}{}}
\@writefile{toc}{\contentsline {subsubsection}{\numberline {6.2.3.4}get\discretionary {-}{}{}\_\discretionary {-}{}{}\discretionary {-}{}{}Q}{14}{subsubsection.6.2.3.4}}
\newlabel{classmaterial_a22219494bdfee577de17a8498c4be2d7}{{6.2.3.4}{14}{get\-\_\-\-Q}{subsubsection.6.2.3.4}{}}
\@writefile{toc}{\contentsline {subsubsection}{\numberline {6.2.3.5}get\discretionary {-}{}{}\_\discretionary {-}{}{}rho}{14}{subsubsection.6.2.3.5}}
\newlabel{classmaterial_aa2bd52a201ab1a437124e13b82edef94}{{6.2.3.5}{14}{get\-\_\-rho}{subsubsection.6.2.3.5}{}}
\@writefile{toc}{\contentsline {subsection}{\numberline {6.2.4}Friends And Related Function Documentation}{15}{subsection.6.2.4}}
\@writefile{toc}{\contentsline {subsubsection}{\numberline {6.2.4.1}operator$<$$<$}{15}{subsubsection.6.2.4.1}}
\newlabel{classmaterial_a30c9bbb448269c27c8f137ee9b0c7ac4}{{6.2.4.1}{15}{operator$<$$<$}{subsubsection.6.2.4.1}{}}
\@writefile{toc}{\contentsline {section}{\numberline {6.3}mesh$<$ T $>$ Class Template Reference}{15}{section.6.3}}
\newlabel{classmesh}{{6.3}{15}{mesh$<$ T $>$ Class Template Reference}{section.6.3}{}}
\@writefile{toc}{\contentsline {subsection}{\numberline {6.3.1}Detailed Description}{15}{subsection.6.3.1}}
\gdef \PWST@i{1}
\gdef \PWST@ii{1}
\@writefile{toc}{\contentsline {subsection}{\numberline {6.3.2}Member Function Documentation}{16}{subsection.6.3.2}}
\@writefile{toc}{\contentsline {subsubsection}{\numberline {6.3.2.1}get\discretionary {-}{}{}\_\discretionary {-}{}{}boundary}{16}{subsubsection.6.3.2.1}}
\newlabel{classmesh_a3101641be3daed250c2394a26675b2da}{{6.3.2.1}{16}{get\-\_\-boundary}{subsubsection.6.3.2.1}{}}
\@writefile{toc}{\contentsline {subsubsection}{\numberline {6.3.2.2}get\discretionary {-}{}{}\_\discretionary {-}{}{}num\discretionary {-}{}{}\_\discretionary {-}{}{}elements}{16}{subsubsection.6.3.2.2}}
\newlabel{classmesh_a18bb05416a54336633b515e18e92d8a6}{{6.3.2.2}{16}{get\-\_\-num\-\_\-elements}{subsubsection.6.3.2.2}{}}
\@writefile{toc}{\contentsline {subsubsection}{\numberline {6.3.2.3}get\discretionary {-}{}{}\_\discretionary {-}{}{}num\discretionary {-}{}{}\_\discretionary {-}{}{}nodes}{16}{subsubsection.6.3.2.3}}
\newlabel{classmesh_a933d4bd3053c4e17c95097cc57923ec8}{{6.3.2.3}{16}{get\-\_\-num\-\_\-nodes}{subsubsection.6.3.2.3}{}}
\@writefile{toc}{\contentsline {subsubsection}{\numberline {6.3.2.4}print\discretionary {-}{}{}\_\discretionary {-}{}{}boundary\discretionary {-}{}{}\_\discretionary {-}{}{}mapping}{16}{subsubsection.6.3.2.4}}
\newlabel{classmesh_aaf5fbf1c8728cdacae701defad989a73}{{6.3.2.4}{16}{print\-\_\-boundary\-\_\-mapping}{subsubsection.6.3.2.4}{}}
\@writefile{toc}{\contentsline {subsubsection}{\numberline {6.3.2.5}read\discretionary {-}{}{}\_\discretionary {-}{}{}ugrid}{16}{subsubsection.6.3.2.5}}
\newlabel{classmesh_a12e0cc2e803062f5e66c56f68ff9ed36}{{6.3.2.5}{16}{read\-\_\-ugrid}{subsubsection.6.3.2.5}{}}
\@writefile{toc}{\contentsline {subsubsection}{\numberline {6.3.2.6}write\discretionary {-}{}{}\_\discretionary {-}{}{}tecplot}{16}{subsubsection.6.3.2.6}}
\newlabel{classmesh_a4bbcfbfb539e112204c58562a49293dd}{{6.3.2.6}{16}{write\-\_\-tecplot}{subsubsection.6.3.2.6}{}}
\gdef \PWST@iii{1}
\@writefile{toc}{\contentsline {subsection}{\numberline {6.3.3}Member Data Documentation}{17}{subsection.6.3.3}}
\@writefile{toc}{\contentsline {subsubsection}{\numberline {6.3.3.1}boundaries}{17}{subsubsection.6.3.3.1}}
\newlabel{classmesh_ac0f5fd478e9dbe63daf81bbbd68cf3ee}{{6.3.3.1}{17}{boundaries}{subsubsection.6.3.3.1}{}}
\@writefile{toc}{\contentsline {subsubsection}{\numberline {6.3.3.2}elements}{17}{subsubsection.6.3.3.2}}
\newlabel{classmesh_a6e1905989ebb06091bb60e5a03bc04a3}{{6.3.3.2}{17}{elements}{subsubsection.6.3.3.2}{}}
\@writefile{toc}{\contentsline {subsubsection}{\numberline {6.3.3.3}nodes}{17}{subsubsection.6.3.3.3}}
\newlabel{classmesh_a54e6fb8226faf7be629f55e7f3833c55}{{6.3.3.3}{17}{nodes}{subsubsection.6.3.3.3}{}}
\@writefile{toc}{\contentsline {section}{\numberline {6.4}node$<$ T $>$ Class Template Reference}{17}{section.6.4}}
\newlabel{classnode}{{6.4}{17}{node$<$ T $>$ Class Template Reference}{section.6.4}{}}
\@writefile{toc}{\contentsline {subsection}{\numberline {6.4.1}Detailed Description}{18}{subsection.6.4.1}}
\@writefile{toc}{\contentsline {subsection}{\numberline {6.4.2}Constructor \& Destructor Documentation}{18}{subsection.6.4.2}}
\@writefile{toc}{\contentsline {subsubsection}{\numberline {6.4.2.1}node}{18}{subsubsection.6.4.2.1}}
\newlabel{classnode_a02f716cff142d5a2298bdf54ae453d8e}{{6.4.2.1}{18}{node}{subsubsection.6.4.2.1}{}}
\@writefile{toc}{\contentsline {subsubsection}{\numberline {6.4.2.2}node}{18}{subsubsection.6.4.2.2}}
\newlabel{classnode_abfba9f0a34043297824d4f39e7c100a0}{{6.4.2.2}{18}{node}{subsubsection.6.4.2.2}{}}
\@writefile{toc}{\contentsline {subsection}{\numberline {6.4.3}Member Function Documentation}{18}{subsection.6.4.3}}
\@writefile{toc}{\contentsline {subsubsection}{\numberline {6.4.3.1}get\discretionary {-}{}{}\_\discretionary {-}{}{}x}{18}{subsubsection.6.4.3.1}}
\newlabel{classnode_a3afac62831b616cc73a8cd0360da5ca2}{{6.4.3.1}{18}{get\-\_\-x}{subsubsection.6.4.3.1}{}}
\@writefile{toc}{\contentsline {subsubsection}{\numberline {6.4.3.2}get\discretionary {-}{}{}\_\discretionary {-}{}{}y}{18}{subsubsection.6.4.3.2}}
\newlabel{classnode_a73189ff62867fa7c26098487b9094e34}{{6.4.3.2}{18}{get\-\_\-y}{subsubsection.6.4.3.2}{}}
\@writefile{toc}{\contentsline {subsubsection}{\numberline {6.4.3.3}get\discretionary {-}{}{}\_\discretionary {-}{}{}z}{18}{subsubsection.6.4.3.3}}
\newlabel{classnode_ac4af5de42809577f389bffda789ddcf3}{{6.4.3.3}{18}{get\-\_\-z}{subsubsection.6.4.3.3}{}}
\@writefile{toc}{\contentsline {section}{\numberline {6.5}solver$<$ T $>$ Class Template Reference}{19}{section.6.5}}
\newlabel{classsolver}{{6.5}{19}{solver$<$ T $>$ Class Template Reference}{section.6.5}{}}
\gdef \PWST@iv{1}
\gdef \PWST@v{1}
\@writefile{toc}{\contentsline {subsection}{\numberline {6.5.1}Detailed Description}{20}{subsection.6.5.1}}
\@writefile{toc}{\contentsline {subsection}{\numberline {6.5.2}Constructor \& Destructor Documentation}{20}{subsection.6.5.2}}
\@writefile{toc}{\contentsline {subsubsection}{\numberline {6.5.2.1}solver}{20}{subsubsection.6.5.2.1}}
\newlabel{classsolver_a82c950705a84f7a1b84178445f09f194}{{6.5.2.1}{20}{solver}{subsubsection.6.5.2.1}{}}
\@writefile{toc}{\contentsline {subsection}{\numberline {6.5.3}Member Function Documentation}{20}{subsection.6.5.3}}
\@writefile{toc}{\contentsline {subsubsection}{\numberline {6.5.3.1}apply\discretionary {-}{}{}\_\discretionary {-}{}{}dirichlet\discretionary {-}{}{}\_\discretionary {-}{}{}bc}{20}{subsubsection.6.5.3.1}}
\newlabel{classsolver_a174e35f5ad99b483c622767de673312f}{{6.5.3.1}{20}{apply\-\_\-dirichlet\-\_\-bc}{subsubsection.6.5.3.1}{}}
\@writefile{toc}{\contentsline {subsubsection}{\numberline {6.5.3.2}apply\discretionary {-}{}{}\_\discretionary {-}{}{}gauge\discretionary {-}{}{}\_\discretionary {-}{}{}condition}{20}{subsubsection.6.5.3.2}}
\newlabel{classsolver_ad785132c994daaf60beefd36ef905ed7}{{6.5.3.2}{20}{apply\-\_\-gauge\-\_\-condition}{subsubsection.6.5.3.2}{}}
\@writefile{toc}{\contentsline {subsubsection}{\numberline {6.5.3.3}apply\discretionary {-}{}{}\_\discretionary {-}{}{}neumann\discretionary {-}{}{}\_\discretionary {-}{}{}bc}{20}{subsubsection.6.5.3.3}}
\newlabel{classsolver_a34fbc193fc22361edf77246ee6b7f632}{{6.5.3.3}{20}{apply\-\_\-neumann\-\_\-bc}{subsubsection.6.5.3.3}{}}
\gdef \PWST@vi{2}
\gdef \PWST@vii{1}
\@writefile{toc}{\contentsline {subsubsection}{\numberline {6.5.3.4}apply\discretionary {-}{}{}\_\discretionary {-}{}{}robin\discretionary {-}{}{}\_\discretionary {-}{}{}bc}{21}{subsubsection.6.5.3.4}}
\newlabel{classsolver_a2d4773df1d92f0ceba28cc79c81caec5}{{6.5.3.4}{21}{apply\-\_\-robin\-\_\-bc}{subsubsection.6.5.3.4}{}}
\@writefile{toc}{\contentsline {subsubsection}{\numberline {6.5.3.5}assemble}{21}{subsubsection.6.5.3.5}}
\newlabel{classsolver_a3215ed44839e34d85285a1790bfeaf4e}{{6.5.3.5}{21}{assemble}{subsubsection.6.5.3.5}{}}
\@writefile{toc}{\contentsline {subsubsection}{\numberline {6.5.3.6}get\discretionary {-}{}{}\_\discretionary {-}{}{}elements}{21}{subsubsection.6.5.3.6}}
\newlabel{classsolver_afede4976fd1352041f013ea22dee62e5}{{6.5.3.6}{21}{get\-\_\-elements}{subsubsection.6.5.3.6}{}}
\@writefile{toc}{\contentsline {subsubsection}{\numberline {6.5.3.7}get\discretionary {-}{}{}\_\discretionary {-}{}{}nodes}{21}{subsubsection.6.5.3.7}}
\newlabel{classsolver_aa39790ce5880edbda74cdd03dbaa2bd1}{{6.5.3.7}{21}{get\-\_\-nodes}{subsubsection.6.5.3.7}{}}
\@writefile{toc}{\contentsline {subsubsection}{\numberline {6.5.3.8}get\discretionary {-}{}{}\_\discretionary {-}{}{}num\discretionary {-}{}{}\_\discretionary {-}{}{}elements}{21}{subsubsection.6.5.3.8}}
\newlabel{classsolver_adeeaf2f628c662bd528da498f136f57d}{{6.5.3.8}{21}{get\-\_\-num\-\_\-elements}{subsubsection.6.5.3.8}{}}
\@writefile{toc}{\contentsline {subsubsection}{\numberline {6.5.3.9}get\discretionary {-}{}{}\_\discretionary {-}{}{}solution\discretionary {-}{}{}\_\discretionary {-}{}{}vector}{21}{subsubsection.6.5.3.9}}
\newlabel{classsolver_a5d4f46bdb543e2d3607839a86415f462}{{6.5.3.9}{21}{get\-\_\-solution\-\_\-vector}{subsubsection.6.5.3.9}{}}
\gdef \PWST@viii{1}
\gdef \PWST@ix{1}
\gdef \PWST@x{1}
\@writefile{toc}{\contentsline {subsubsection}{\numberline {6.5.3.10}print\discretionary {-}{}{}\_\discretionary {-}{}{}boundary\discretionary {-}{}{}\_\discretionary {-}{}{}mapping}{22}{subsubsection.6.5.3.10}}
\newlabel{classsolver_ab647764c0f3e318abfd453f2007b75be}{{6.5.3.10}{22}{print\-\_\-boundary\-\_\-mapping}{subsubsection.6.5.3.10}{}}
\@writefile{toc}{\contentsline {subsubsection}{\numberline {6.5.3.11}read\discretionary {-}{}{}\_\discretionary {-}{}{}input\discretionary {-}{}{}\_\discretionary {-}{}{}file}{22}{subsubsection.6.5.3.11}}
\newlabel{classsolver_a304cfdddb69b9f0af39791652b174daf}{{6.5.3.11}{22}{read\-\_\-input\-\_\-file}{subsubsection.6.5.3.11}{}}
\@writefile{toc}{\contentsline {subsubsection}{\numberline {6.5.3.12}read\discretionary {-}{}{}\_\discretionary {-}{}{}mesh}{22}{subsubsection.6.5.3.12}}
\newlabel{classsolver_aaaeb03fb93974523485c38286559d9e3}{{6.5.3.12}{22}{read\-\_\-mesh}{subsubsection.6.5.3.12}{}}
\@writefile{toc}{\contentsline {subsubsection}{\numberline {6.5.3.13}sample\discretionary {-}{}{}\_\discretionary {-}{}{}neumann\discretionary {-}{}{}\_\discretionary {-}{}{}integrands}{22}{subsubsection.6.5.3.13}}
\newlabel{classsolver_a918e941d31fb0cc7a742ac5f36fde3b0}{{6.5.3.13}{22}{sample\-\_\-neumann\-\_\-integrands}{subsubsection.6.5.3.13}{}}
\@writefile{toc}{\contentsline {subsubsection}{\numberline {6.5.3.14}sample\discretionary {-}{}{}\_\discretionary {-}{}{}robin\discretionary {-}{}{}\_\discretionary {-}{}{}integrands}{22}{subsubsection.6.5.3.14}}
\newlabel{classsolver_a22d302748443da6ade0424aa584d028c}{{6.5.3.14}{22}{sample\-\_\-robin\-\_\-integrands}{subsubsection.6.5.3.14}{}}
\gdef \PWST@xi{2}
\gdef \PWST@xii{1}
\gdef \PWST@xiii{1}
\gdef \PWST@xiv{1}
\@writefile{toc}{\contentsline {subsubsection}{\numberline {6.5.3.15}solve\discretionary {-}{}{}\_\discretionary {-}{}{}system}{23}{subsubsection.6.5.3.15}}
\newlabel{classsolver_ab611efe894cb36808bde2ea4112e1ed3}{{6.5.3.15}{23}{solve\-\_\-system}{subsubsection.6.5.3.15}{}}
\@writefile{toc}{\contentsline {subsubsection}{\numberline {6.5.3.16}write\discretionary {-}{}{}\_\discretionary {-}{}{}solution}{23}{subsubsection.6.5.3.16}}
\newlabel{classsolver_a8c77da501219540f70c522fb373c05d6}{{6.5.3.16}{23}{write\-\_\-solution}{subsubsection.6.5.3.16}{}}
\@writefile{toc}{\contentsline {subsubsection}{\numberline {6.5.3.17}write\discretionary {-}{}{}\_\discretionary {-}{}{}solution\discretionary {-}{}{}\_\discretionary {-}{}{}additional}{23}{subsubsection.6.5.3.17}}
\newlabel{classsolver_a2b73999dbad29dc91432f2abea95855c}{{6.5.3.17}{23}{write\-\_\-solution\-\_\-additional}{subsubsection.6.5.3.17}{}}
\@writefile{toc}{\contentsline {subsection}{\numberline {6.5.4}Member Data Documentation}{23}{subsection.6.5.4}}
\@writefile{toc}{\contentsline {subsubsection}{\numberline {6.5.4.1}materials}{23}{subsubsection.6.5.4.1}}
\newlabel{classsolver_a9f6c018e331fb279a1ec90ca815dc99a}{{6.5.4.1}{23}{materials}{subsubsection.6.5.4.1}{}}
\@writefile{toc}{\contentsline {section}{\numberline {6.6}tensor\discretionary {-}{}{}\_\discretionary {-}{}{}element$<$ T $>$ Class Template Reference}{24}{section.6.6}}
\newlabel{classtensor__element}{{6.6}{24}{tensor\-\_\-element$<$ T $>$ Class Template Reference}{section.6.6}{}}
\@writefile{toc}{\contentsline {subsection}{\numberline {6.6.1}Detailed Description}{24}{subsection.6.6.1}}
\gdef \PWST@xv{1}
\gdef \PWST@xvi{1}
\@writefile{toc}{\contentsline {subsection}{\numberline {6.6.2}Constructor \& Destructor Documentation}{25}{subsection.6.6.2}}
\@writefile{toc}{\contentsline {subsubsection}{\numberline {6.6.2.1}tensor\discretionary {-}{}{}\_\discretionary {-}{}{}element}{25}{subsubsection.6.6.2.1}}
\newlabel{classtensor__element_ac53151a2d4fcae8472221df9bf673914}{{6.6.2.1}{25}{tensor\-\_\-element}{subsubsection.6.6.2.1}{}}
\@writefile{toc}{\contentsline {subsubsection}{\numberline {6.6.2.2}tensor\discretionary {-}{}{}\_\discretionary {-}{}{}element}{25}{subsubsection.6.6.2.2}}
\newlabel{classtensor__element_ae49bb2d69eb823d92401f2b2975c2ba7}{{6.6.2.2}{25}{tensor\-\_\-element}{subsubsection.6.6.2.2}{}}
\@writefile{toc}{\contentsline {subsection}{\numberline {6.6.3}Member Function Documentation}{25}{subsection.6.6.3}}
\@writefile{toc}{\contentsline {subsubsection}{\numberline {6.6.3.1}compute\discretionary {-}{}{}\_\discretionary {-}{}{}jacobian}{25}{subsubsection.6.6.3.1}}
\newlabel{classtensor__element_ac683e8177dbfccf063060f43f75fab2d}{{6.6.3.1}{25}{compute\-\_\-jacobian}{subsubsection.6.6.3.1}{}}
\@writefile{toc}{\contentsline {subsubsection}{\numberline {6.6.3.2}d\discretionary {-}{}{}N}{25}{subsubsection.6.6.3.2}}
\newlabel{classtensor__element_a91659f0004b4a8cc75ab94a1d859799d}{{6.6.3.2}{25}{d\-N}{subsubsection.6.6.3.2}{}}
\gdef \PWST@xvii{2}
\gdef \PWST@xviii{1}
\gdef \PWST@xix{1}
\@writefile{toc}{\contentsline {subsubsection}{\numberline {6.6.3.3}get\discretionary {-}{}{}\_\discretionary {-}{}{}connectivity}{26}{subsubsection.6.6.3.3}}
\newlabel{classtensor__element_ae810bf39de406ac88b96afaa5ef44914}{{6.6.3.3}{26}{get\-\_\-connectivity}{subsubsection.6.6.3.3}{}}
\@writefile{toc}{\contentsline {subsubsection}{\numberline {6.6.3.4}get\discretionary {-}{}{}\_\discretionary {-}{}{}det\discretionary {-}{}{}J}{26}{subsubsection.6.6.3.4}}
\newlabel{classtensor__element_ab1017774ab83be0cf592eaae4794fdfe}{{6.6.3.4}{26}{get\-\_\-det\-J}{subsubsection.6.6.3.4}{}}
\@writefile{toc}{\contentsline {subsubsection}{\numberline {6.6.3.5}get\discretionary {-}{}{}\_\discretionary {-}{}{}material}{26}{subsubsection.6.6.3.5}}
\newlabel{classtensor__element_aabe509f9e9c84cafc66e1c460e65b79f}{{6.6.3.5}{26}{get\-\_\-material}{subsubsection.6.6.3.5}{}}
\@writefile{toc}{\contentsline {subsubsection}{\numberline {6.6.3.6}get\discretionary {-}{}{}\_\discretionary {-}{}{}node\discretionary {-}{}{}\_\discretionary {-}{}{}objects}{26}{subsubsection.6.6.3.6}}
\newlabel{classtensor__element_af352e100dd5ed2642443c42cd2555001}{{6.6.3.6}{26}{get\-\_\-node\-\_\-objects}{subsubsection.6.6.3.6}{}}
\@writefile{toc}{\contentsline {subsubsection}{\numberline {6.6.3.7}set\discretionary {-}{}{}\_\discretionary {-}{}{}connectivity}{26}{subsubsection.6.6.3.7}}
\newlabel{classtensor__element_a5a58c164b79d6dafab83afdea5ac0c0a}{{6.6.3.7}{26}{set\-\_\-connectivity}{subsubsection.6.6.3.7}{}}
\@writefile{toc}{\contentsline {subsection}{\numberline {6.6.4}Member Data Documentation}{26}{subsection.6.6.4}}
\@writefile{toc}{\contentsline {subsubsection}{\numberline {6.6.4.1}elem\discretionary {-}{}{}\_\discretionary {-}{}{}material}{26}{subsubsection.6.6.4.1}}
\newlabel{classtensor__element_a8fbb83cd72db3e45faba8b7b73e20489}{{6.6.4.1}{26}{elem\-\_\-material}{subsubsection.6.6.4.1}{}}
\@writefile{toc}{\contentsline {chapter}{\numberline {7}File Documentation}{27}{chapter.7}}
\@writefile{lof}{\addvspace {10\p@ }}
\@writefile{lot}{\addvspace {10\p@ }}
\@writefile{toc}{\contentsline {section}{\numberline {7.1}boundary.\discretionary {-}{}{}h File Reference}{27}{section.7.1}}
\newlabel{boundary_8h}{{7.1}{27}{boundary.\-h File Reference}{section.7.1}{}}
\@writefile{toc}{\contentsline {section}{\numberline {7.2}main.\discretionary {-}{}{}dox File Reference}{28}{section.7.2}}
\newlabel{main_8dox}{{7.2}{28}{main.\-dox File Reference}{section.7.2}{}}
\@writefile{toc}{\contentsline {section}{\numberline {7.3}material.\discretionary {-}{}{}h File Reference}{28}{section.7.3}}
\newlabel{material_8h}{{7.3}{28}{material.\-h File Reference}{section.7.3}{}}
\@writefile{toc}{\contentsline {subsection}{\numberline {7.3.1}Function Documentation}{29}{subsection.7.3.1}}
\@writefile{toc}{\contentsline {subsubsection}{\numberline {7.3.1.1}operator$<$$<$}{29}{subsubsection.7.3.1.1}}
\newlabel{material_8h_a30c9bbb448269c27c8f137ee9b0c7ac4}{{7.3.1.1}{29}{operator$<$$<$}{subsubsection.7.3.1.1}{}}
\@writefile{toc}{\contentsline {section}{\numberline {7.4}mesh.\discretionary {-}{}{}h File Reference}{29}{section.7.4}}
\newlabel{mesh_8h}{{7.4}{29}{mesh.\-h File Reference}{section.7.4}{}}
\@writefile{toc}{\contentsline {section}{\numberline {7.5}node.\discretionary {-}{}{}h File Reference}{30}{section.7.5}}
\newlabel{node_8h}{{7.5}{30}{node.\-h File Reference}{section.7.5}{}}
\@writefile{toc}{\contentsline {section}{\numberline {7.6}setup.\discretionary {-}{}{}h File Reference}{31}{section.7.6}}
\newlabel{setup_8h}{{7.6}{31}{setup.\-h File Reference}{section.7.6}{}}
\@writefile{toc}{\contentsline {subsection}{\numberline {7.6.1}Function Documentation}{32}{subsection.7.6.1}}
\@writefile{toc}{\contentsline {subsubsection}{\numberline {7.6.1.1}conductivity}{32}{subsubsection.7.6.1.1}}
\newlabel{setup_8h_a7570e52cba0dc5f81ba4b7407e4076c7}{{7.6.1.1}{32}{conductivity}{subsubsection.7.6.1.1}{}}
\@writefile{toc}{\contentsline {subsubsection}{\numberline {7.6.1.2}get\discretionary {-}{}{}\_\discretionary {-}{}{}element\discretionary {-}{}{}\_\discretionary {-}{}{}properties\discretionary {-}{}{}\_\discretionary {-}{}{}1pt}{32}{subsubsection.7.6.1.2}}
\newlabel{setup_8h_ab649b9b20c84ec633a28fe7c429ddb02}{{7.6.1.2}{32}{get\-\_\-element\-\_\-properties\-\_\-1pt}{subsubsection.7.6.1.2}{}}
\@writefile{toc}{\contentsline {subsubsection}{\numberline {7.6.1.3}get\discretionary {-}{}{}\_\discretionary {-}{}{}element\discretionary {-}{}{}\_\discretionary {-}{}{}properties\discretionary {-}{}{}\_\discretionary {-}{}{}8pt}{32}{subsubsection.7.6.1.3}}
\newlabel{setup_8h_a4a9de6ab3141e5ad2204fda2d3d9f8c7}{{7.6.1.3}{32}{get\-\_\-element\-\_\-properties\-\_\-8pt}{subsubsection.7.6.1.3}{}}
\@writefile{toc}{\contentsline {subsubsection}{\numberline {7.6.1.4}sample\discretionary {-}{}{}\_\discretionary {-}{}{}integrands}{32}{subsubsection.7.6.1.4}}
\newlabel{setup_8h_a044be36e2d222a6f8e3d8662a2a092ec}{{7.6.1.4}{32}{sample\-\_\-integrands}{subsubsection.7.6.1.4}{}}
\@writefile{toc}{\contentsline {subsubsection}{\numberline {7.6.1.5}source}{32}{subsubsection.7.6.1.5}}
\newlabel{setup_8h_a516a8d7b6771bcc9561dbbdcb4b128e7}{{7.6.1.5}{32}{source}{subsubsection.7.6.1.5}{}}
\@writefile{toc}{\contentsline {section}{\numberline {7.7}shape\discretionary {-}{}{}\_\discretionary {-}{}{}fcns\discretionary {-}{}{}\_\discretionary {-}{}{}1d.\discretionary {-}{}{}h File Reference}{32}{section.7.7}}
\newlabel{shape__fcns__1d_8h}{{7.7}{32}{shape\-\_\-fcns\-\_\-1d.\-h File Reference}{section.7.7}{}}
\@writefile{toc}{\contentsline {subsection}{\numberline {7.7.1}Function Documentation}{33}{subsection.7.7.1}}
\@writefile{toc}{\contentsline {subsubsection}{\numberline {7.7.1.1}dpsi}{33}{subsubsection.7.7.1.1}}
\newlabel{shape__fcns__1d_8h_a1a478f2e7aded129c9898ae8ccb4115d}{{7.7.1.1}{33}{dpsi}{subsubsection.7.7.1.1}{}}
\gdef \PWST@xx{1}
\gdef \PWST@xxi{1}
\@writefile{toc}{\contentsline {subsubsection}{\numberline {7.7.1.2}psi}{34}{subsubsection.7.7.1.2}}
\newlabel{shape__fcns__1d_8h_abe347cf16135da483ccdc855c18bfc30}{{7.7.1.2}{34}{psi}{subsubsection.7.7.1.2}{}}
\@writefile{toc}{\contentsline {section}{\numberline {7.8}shape\discretionary {-}{}{}\_\discretionary {-}{}{}fcns\discretionary {-}{}{}\_\discretionary {-}{}{}3d.\discretionary {-}{}{}h File Reference}{34}{section.7.8}}
\newlabel{shape__fcns__3d_8h}{{7.8}{34}{shape\-\_\-fcns\-\_\-3d.\-h File Reference}{section.7.8}{}}
\gdef \PWST@xxii{1}
\gdef \PWST@xxiii{1}
\@writefile{toc}{\contentsline {subsection}{\numberline {7.8.1}Detailed Description}{36}{subsection.7.8.1}}
\@writefile{toc}{\contentsline {subsection}{\numberline {7.8.2}Function Documentation}{36}{subsection.7.8.2}}
\@writefile{toc}{\contentsline {subsubsection}{\numberline {7.8.2.1}d\discretionary {-}{}{}Ndeta}{36}{subsubsection.7.8.2.1}}
\newlabel{shape__fcns__3d_8h_ae98c570df843b519724d6f2499715ba8}{{7.8.2.1}{36}{d\-Ndeta}{subsubsection.7.8.2.1}{}}
\@writefile{toc}{\contentsline {subsubsection}{\numberline {7.8.2.2}d\discretionary {-}{}{}Ndxi}{36}{subsubsection.7.8.2.2}}
\newlabel{shape__fcns__3d_8h_af18a346866eaad7b0737706c4fc813ab}{{7.8.2.2}{36}{d\-Ndxi}{subsubsection.7.8.2.2}{}}
\@writefile{toc}{\contentsline {subsubsection}{\numberline {7.8.2.3}d\discretionary {-}{}{}Ndzeta}{36}{subsubsection.7.8.2.3}}
\newlabel{shape__fcns__3d_8h_a16ab869e402c298810fb07f158cc0a78}{{7.8.2.3}{36}{d\-Ndzeta}{subsubsection.7.8.2.3}{}}
\gdef \PWST@xxiv{2}
\gdef \PWST@xxv{1}
\@writefile{toc}{\contentsline {subsubsection}{\numberline {7.8.2.4}N}{37}{subsubsection.7.8.2.4}}
\newlabel{shape__fcns__3d_8h_a78afdaf3c814dcd8ba29823d5c33ff58}{{7.8.2.4}{37}{N}{subsubsection.7.8.2.4}{}}
\@writefile{toc}{\contentsline {section}{\numberline {7.9}solver.\discretionary {-}{}{}h File Reference}{37}{section.7.9}}
\newlabel{solver_8h}{{7.9}{37}{solver.\-h File Reference}{section.7.9}{}}
\@writefile{toc}{\contentsline {section}{\numberline {7.10}tensor\discretionary {-}{}{}\_\discretionary {-}{}{}element.\discretionary {-}{}{}h File Reference}{38}{section.7.10}}
\newlabel{tensor__element_8h}{{7.10}{38}{tensor\-\_\-element.\-h File Reference}{section.7.10}{}}
\@writefile{toc}{\contentsline {chapter}{Index}{40}{section*.31}}
