#Example input file for heat transfer analysis
#GRIDFILE .\mesh\rod.ugrid
#MATFILE .\mesh\rod.mat
GRIDFILE ./mesh/sphere.ugrid
MATFILE ./mesh/sphere.mat

#Set ambient temperature to 25 deg. C
#this temperature is applied to all boundary nodes with a marker of '0'
TAMB 0

#Set material 0 properties 
#applied to elements with a marker of '0'
#thermal conductivity = 0.58 W/m*deg. C 
# density*specific heat capacity = 800 kg/m^3 * 2000 J/m^3*deg. C
# heat source (W/m^3)
#            k   rho   Cp    Q   
#MATERIAL 0 5.5 1000 4200 100.0
#PWB printed wire board
MATERIAL 1 1.0 0.0 0.0 0.0

HCONV 0

#set initial temperature  
INIT_TEMP -25.0

#set time step size (seconds) for unsteady solution
#set DT to 0 for steady state solution only
DT 0

#set total number of time steps (unsteady solution only)
NTIMESTEP 50

RELAX .1

OUTPUT

#RESTART
