\relax 
\providecommand\hyper@newdestlabel[2]{}
\providecommand\HyperFirstAtBeginDocument{\AtBeginDocument}
\HyperFirstAtBeginDocument{\ifx\hyper@anchor\@undefined
\global\let\oldcontentsline\contentsline
\gdef\contentsline#1#2#3#4{\oldcontentsline{#1}{#2}{#3}}
\global\let\oldnewlabel\newlabel
\gdef\newlabel#1#2{\newlabelxx{#1}#2}
\gdef\newlabelxx#1#2#3#4#5#6{\oldnewlabel{#1}{{#2}{#3}}}
\AtEndDocument{\ifx\hyper@anchor\@undefined
\let\contentsline\oldcontentsline
\let\newlabel\oldnewlabel
\fi}
\fi}
\global\let\hyper@last\relax 
\gdef\HyperFirstAtBeginDocument#1{#1}
\providecommand\HyField@AuxAddToFields[1]{}
\providecommand\HyField@AuxAddToCoFields[2]{}
\@writefile{toc}{\contentsline {section}{\numberline {1}Introduction}{1}{section.1}}
\@writefile{toc}{\contentsline {section}{\numberline {2}Formulation}{1}{section.2}}
\@writefile{toc}{\contentsline {section}{\numberline {3}Validation}{4}{section.3}}
\@writefile{lof}{\contentsline {figure}{\numberline {1}{\ignorespaces Plots showing the $\mathcal  {L}^2$ norm of the error vs the inverse of the cube root of the number of elements.\relax }}{4}{figure.caption.1}}
\@writefile{lof}{\contentsline {figure}{\numberline {2}{\ignorespaces Hexahedral mesh.\relax }}{5}{figure.caption.2}}
\@writefile{lof}{\contentsline {figure}{\numberline {3}{\ignorespaces Prism mesh.\relax }}{5}{figure.caption.3}}
\@writefile{lof}{\contentsline {figure}{\numberline {4}{\ignorespaces Tetrahedral mesh.\relax }}{6}{figure.caption.4}}
\@writefile{lof}{\contentsline {figure}{\numberline {5}{\ignorespaces Hexahedral solution.\relax }}{6}{figure.caption.5}}
\@writefile{lof}{\contentsline {figure}{\numberline {6}{\ignorespaces Prism solution.\relax }}{7}{figure.caption.6}}
\@writefile{lof}{\contentsline {figure}{\numberline {7}{\ignorespaces Tetrahedral solution.\relax }}{7}{figure.caption.7}}
\@writefile{toc}{\contentsline {section}{\numberline {4}Results}{7}{section.4}}
\@writefile{toc}{\contentsline {subsection}{\numberline {4.1}Heat conduction}{8}{subsection.4.1}}
\@writefile{toc}{\contentsline {subsection}{\numberline {4.2}Potential flow}{9}{subsection.4.2}}
\@writefile{lof}{\contentsline {figure}{\numberline {12}{\ignorespaces Slice showing contours of the $x$-component of velocity along with streamlines.\relax }}{10}{figure.caption.12}}
\@writefile{toc}{\contentsline {section}{\numberline {5}Future work}{10}{section.5}}
